{
  "nomPnj": "Michel Chelou",
  "passages": {
    "premierTexte": {
      "nom": "premierTexte",
      "texte": "premierTexte",
      "choix": [
        {
          "texte": "😊",
          "lien": "marcheOufOui"
        },
        {
          "texte": "🤔",
          "lien": "marcheOufNon"
        },
        {
          "texte": "😢",
          "lien": "marcheOufNon"
        },
        {
          "texte": "😶",
          "lien": "fermer"
        },
        {
          "texte": "😠",
          "lien": "fermer"
        },
        {
          "texte": "🤬",
          "lien": "fermer"
        }
      ],
      "marcheOufNon": {
        "nom": "marcheOufNon",
        "texte": "Ca marche de ouf! T'as cliqué sur Non",
        "choix": [
          {
            "texte": "😊",
            "lien": "marcheOufOui"
          },
          {
            "texte": "🤔",
            "lien": "marcheOufNon"
          },
          {
            "texte": "😢",
            "lien": "marcheOufNon"
          },
          {
            "texte": "😶",
            "lien": "fermer"
          },
          {
            "texte": "😠",
            "lien": "fermer"
          },
          {
            "texte": "🤬",
            "lien": "fermer"
          }
        ]
      },
      "marcheOufOui": {
        "nom": "marcheOufOui",
        "texte": "Ca marche de ouf! T'as cliqué sur Oui",
        "choix": [
          {
            "texte": "😊",
            "lien": "marcheOufOui"
          },
          {
            "texte": "🤔",
            "lien": "marcheOufNon"
          },
          {
            "texte": "😢",
            "lien": "marcheOufNon"
          },
          {
            "texte": "😶",
            "lien": "fermer"
          },
          {
            "texte": "😠",
            "lien": "fermer"
          },
          {
            "texte": "🤬",
            "lien": "fermer"
          }
        ]
      }
    },
    "marcheOufNon": {
      "nom": "marcheOufNon",
      "texte": "Ca marche de ouf! T'as cliqué sur Non",
      "choix": [
        {
          "texte": "😊",
          "lien": "marcheOufOui"
        },
        {
          "texte": "🤔",
          "lien": "marcheOufNon"
        },
        {
          "texte": "😢",
          "lien": "marcheOufNon"
        },
        {
          "texte": "😶",
          "lien": "fermer"
        },
        {
          "texte": "😠",
          "lien": "fermer"
        },
        {
          "texte": "🤬",
          "lien": "fermer"
        }
      ]
    }
  }
}
